Biostat 203B Homework 3
…
sid_lab <- arrow::open_dataset("labevents_pq") |>
  filter(subject_id == sid) |>
  collect() |>
  print(width = Inf)

# A tibble: 353 × 16
   labevent_id subject_id hadm_id specimen_id itemid order_provider_id
         <int>      <int>   <int>       <int>  <int> <chr>            
 1        8945   10001217      NA    17915844  50887 ""               
 2        8946   10001217      NA    27706469  51146 ""               
 3        8947   10001217      NA    27706469  51200 ""               
 4        8948   10001217      NA    27706469  51221 ""               
 5        8949   10001217      NA    27706469  51222 ""               
 6        8950   10001217      NA    27706469  51244 ""               
 7        8951   10001217      NA    27706469  51248 ""               
 8        8952   10001217      NA    27706469  51249 ""               
 9        8953   10001217      NA    27706469  51250 ""               
10        8954   10001217      NA    27706469  51254 ""               
   charttime           storetime          
   <dttm>              <dttm>             
 1 2157-11-18 10:30:00 NA                 
 2 2157-11-18 10:30:00 2157-11-18 10:56:00
 3 2157-11-18 10:30:00 2157-11-18 10:56:00
 4 2157-11-18 10:30:00 2157-11-18 10:56:00
 5 2157-11-18 10:30:00 2157-11-18 10:56:00
 6 2157-11-18 10:30:00 2157-11-18 10:56:00
 7 2157-11-18 10:30:00 2157-11-18 10:56:00
 8 2157-11-18 10:30:00 2157-11-18 10:56:00
 9 2157-11-18 10:30:00 2157-11-18 10:56:00
10 2157-11-18 10:30:00 2157-11-18 10:56:00
   value                                   valuenum valueuom ref_range_lower
   <chr>                                      <dbl> <chr>              <dbl>
 1 HOLD.  DISCARD GREATER THAN 24 HRS OLD.     NA   ""                    NA
 2 0.7                                          0.7 "%"                    0
 3 0.5                                          0.5 "%"                    0
 4 42.2                                        42.2 "%"                   36
 5 14.1                                        14.1 "g/dL"                12
 6 27.4                                        27.4 "%"                   18
 7 27.2                                        27.2 "pg"                  27
 8 33.3                                        33.3 "%"                   31
 9 82                                          82   "fL"                  82
10 6.3                                          6.3 "%"                    2
   ref_range_upper flag  priority comments
             <dbl> <chr> <chr>    <chr>   
 1              NA ""    STAT     "___"   
 2               2 ""    STAT     ""      
 3               4 ""    STAT     ""      
 4              48 ""    STAT     ""      
 5              16 ""    STAT     ""      
 6              42 ""    STAT     ""      
 7              32 ""    STAT     ""      
 8              35 ""    STAT     ""      
 9              98 ""    STAT     ""      
10              11 ""    STAT     ""      
# ℹ 343 more rows
…
sid_ipcd <- read_csv("~/mimic/hosp/d_icd_procedures.csv.gz") |>
  print(width = Inf)

Rows: 85257 Columns: 3
── Column specification ────────────────────────────────────────────────────────
Delimiter: ","
chr (2): icd_code, long_title
dbl (1): icd_version

ℹ Use `spec()` to retrieve the full column specification for this data.
ℹ Specify the column types or set `show_col_types = FALSE` to quiet this message.

# A tibble: 85,257 × 3
   icd_code icd_version
   <chr>          <dbl>
 1 0001               9
 2 0002               9
 3 0003               9
 4 0009               9
 5 001               10
 6 0010               9
 7 0011               9
 8 0012               9
 9 0013               9
10 0014               9
   long_title                                                 
   <chr>                                                      
 1 Therapeutic ultrasound of vessels of head and neck         
 2 Therapeutic ultrasound of heart                            
 3 Therapeutic ultrasound of peripheral vascular vessels      
 4 Other therapeutic ultrasound                               
 5 Central Nervous System and Cranial Nerves, Bypass          
 6 Implantation of chemotherapeutic agent                     
 7 Infusion of drotrecogin alfa (activated)                   
 8 Administration of inhaled nitric oxide                     
 9 Injection or infusion of nesiritide                        
10 Injection or infusion of oxazolidinone class of antibiotics
# ℹ 85,247 more rows
…
sid_cet <- arrow::open_dataset("chartevents_pq") |>
  filter(subject_id == sid) |>
  collect() |>
  inner_join(sid_ite, by = "itemid") |>
  mutate(value = as.numeric(value)) |>
  print(width = Inf)

# A tibble: 219 × 19
   subject_id  hadm_id  stay_id caregiver_id charttime          
        <int>    <int>    <int>        <int> <dttm>             
 1   10001217 24597018 37067082         7355 2157-11-21 11:00:00
 2   10001217 24597018 37067082         7355 2157-11-21 11:00:00
 3   10001217 24597018 37067082         7355 2157-11-21 11:00:00
 4   10001217 24597018 37067082         7355 2157-11-21 11:00:00
 5   10001217 24597018 37067082         7355 2157-11-21 11:00:00
 6   10001217 24597018 37067082         7355 2157-11-21 12:00:00
 7   10001217 24597018 37067082         7355 2157-11-21 12:00:00
 8   10001217 24597018 37067082         7355 2157-11-21 12:00:00
 9   10001217 24597018 37067082         7355 2157-11-21 12:00:00
10   10001217 24597018 37067082         7355 2157-11-21 13:00:00
   storetime           itemid value valuenum valueuom warning
   <dttm>               <dbl> <dbl>    <dbl> <chr>      <int>
 1 2157-11-21 11:37:00 220045  101      101  bpm            0
 2 2157-11-21 11:37:00 220179  145      145  mmHg           0
 3 2157-11-21 11:37:00 220180   84       84  mmHg           0
 4 2157-11-21 11:37:00 220210   25       25  insp/min       0
 5 2157-11-21 11:39:00 223761  101.     101. °F             0
 6 2157-11-21 12:55:00 220045   96       96  bpm            0
 7 2157-11-21 12:55:00 220179  153      153  mmHg           0
 8 2157-11-21 12:55:00 220180   86       86  mmHg           0
 9 2157-11-21 12:55:00 220210   24       24  insp/min       0
10 2157-11-21 13:10:00 220045   93       93  bpm            0
   label                                 abbreviation  linksto    
   <chr>                                 <chr>         <chr>      
 1 Heart Rate                            HR            chartevents
 2 Non Invasive Blood Pressure systolic  NBPs          chartevents
 3 Non Invasive Blood Pressure diastolic NBPd          chartevents
 4 Respiratory Rate                      RR            chartevents
 5 Temperature Fahrenheit                Temperature F chartevents
 6 Heart Rate                            HR            chartevents
 7 Non Invasive Blood Pressure systolic  NBPs          chartevents
 8 Non Invasive Blood Pressure diastolic NBPd          chartevents
 9 Respiratory Rate                      RR            chartevents
10 Heart Rate                            HR            chartevents
   category            unitname param_type lownormalvalue highnormalvalue
   <chr>               <chr>    <chr>               <dbl>           <dbl>
 1 Routine Vital Signs bpm      Numeric                NA              NA
 2 Routine Vital Signs mmHg     Numeric                NA              NA
 3 Routine Vital Signs mmHg     Numeric                NA              NA
 4 Respiratory         insp/min Numeric                NA              NA
 5 Routine Vital Signs °F       Numeric                NA              NA
 6 Routine Vital Signs bpm      Numeric                NA              NA
 7 Routine Vital Signs mmHg     Numeric                NA              NA
 8 Routine Vital Signs mmHg     Numeric                NA              NA
 9 Respiratory         insp/min Numeric                NA              NA
10 Routine Vital Signs bpm      Numeric                NA              NA
# ℹ 209 more rows
…
icustays_tble <- read_csv("~/mimic/icu/icustays.csv.gz") |>
  as_tibble() |>
  print(width = Inf)

Rows: 73181 Columns: 8
── Column specification ────────────────────────────────────────────────────────
Delimiter: ","
chr  (2): first_careunit, last_careunit
dbl  (4): subject_id, hadm_id, stay_id, los
dttm (2): intime, outtime

ℹ Use `spec()` to retrieve the full column specification for this data.
ℹ Specify the column types or set `show_col_types = FALSE` to quiet this message.

# A tibble: 73,181 × 8
   subject_id  hadm_id  stay_id first_careunit                                  
        <dbl>    <dbl>    <dbl> <chr>                                           
 1   10000032 29079034 39553978 Medical Intensive Care Unit (MICU)              
 2   10000980 26913865 39765666 Medical Intensive Care Unit (MICU)              
 3   10001217 24597018 37067082 Surgical Intensive Care Unit (SICU)             
 4   10001217 27703517 34592300 Surgical Intensive Care Unit (SICU)             
 5   10001725 25563031 31205490 Medical/Surgical Intensive Care Unit (MICU/SICU)
 6   10001884 26184834 37510196 Medical Intensive Care Unit (MICU)              
 7   10002013 23581541 39060235 Cardiac Vascular Intensive Care Unit (CVICU)    
 8   10002155 20345487 32358465 Medical Intensive Care Unit (MICU)              
 9   10002155 23822395 33685454 Coronary Care Unit (CCU)                        
10   10002155 28994087 31090461 Medical/Surgical Intensive Care Unit (MICU/SICU)
   last_careunit                                    intime             
   <chr>                                            <dttm>             
 1 Medical Intensive Care Unit (MICU)               2180-07-23 14:00:00
 2 Medical Intensive Care Unit (MICU)               2189-06-27 08:42:00
 3 Surgical Intensive Care Unit (SICU)              2157-11-20 19:18:02
 4 Surgical Intensive Care Unit (SICU)              2157-12-19 15:42:24
 5 Medical/Surgical Intensive Care Unit (MICU/SICU) 2110-04-11 15:52:22
 6 Medical Intensive Care Unit (MICU)               2131-01-11 04:20:05
 7 Cardiac Vascular Intensive Care Unit (CVICU)     2160-05-18 10:00:53
 8 Medical Intensive Care Unit (MICU)               2131-03-09 21:33:00
 9 Coronary Care Unit (CCU)                         2129-08-04 12:45:00
10 Medical/Surgical Intensive Care Unit (MICU/SICU) 2130-09-24 00:50:00
   outtime               los
   <dttm>              <dbl>
 1 2180-07-23 23:50:47 0.410
 2 2189-06-27 20:38:27 0.498
 3 2157-11-21 22:08:00 1.12 
 4 2157-12-20 14:27:41 0.948
 5 2110-04-12 23:59:56 1.34 
 6 2131-01-20 08:27:30 9.17 
 7 2160-05-19 17:33:33 1.31 
 8 2131-03-10 18:09:21 0.859
 9 2129-08-10 17:02:38 6.18 
10 2130-09-27 22:13:41 3.89 
# ℹ 73,171 more rows
…
How many unique subject_id? Can a subject_id have multiple ICU stays? Summarize the number of ICU stays per subject_id by graphs.

Answer

unique_id <- n_distinct(icustays_tble$subject_id)
print(unique_id)

[1] 50920

icu_stays_summary <- icustays_tble %>%
  group_by(subject_id) %>%
  summarise(number_of_stays = n_distinct(stay_id))
icu_stays_summary

# A tibble: 50,920 × 2
   subject_id number_of_stays
        <dbl>           <int>
 1   10000032               1
 2   10000980               1
 3   10001217               2
 4   10001725               1
 5   10001884               1
 6   10002013               1
 7   10002155               3
 8   10002348               1
 9   10002428               4
10   10002430               1
# ℹ 50,910 more rows

arrange(icu_stays_summary, desc(number_of_stays))

# A tibble: 50,920 × 2
   subject_id number_of_stays
        <dbl>           <int>
 1   18358138              37
 2   12468016              33
 3   17585185              33
 4   13269859              30
 5   18676703              26
 6   11281568              25
 7   15455517              25
 8   15573773              24
 9   17937834              24
10   15131736              22
# ℹ 50,910 more rows
…
admissions_tble <- read_csv("~/mimic/hosp/admissions.csv.gz") |>
  as_tibble() |>
  print(width = Inf)

Rows: 431231 Columns: 16
── Column specification ────────────────────────────────────────────────────────
Delimiter: ","
chr  (8): admission_type, admit_provider_id, admission_location, discharge_l...
dbl  (3): subject_id, hadm_id, hospital_expire_flag
dttm (5): admittime, dischtime, deathtime, edregtime, edouttime

ℹ Use `spec()` to retrieve the full column specification for this data.
ℹ Specify the column types or set `show_col_types = FALSE` to quiet this message.

# A tibble: 431,231 × 16
   subject_id  hadm_id admittime           dischtime           deathtime
        <dbl>    <dbl> <dttm>              <dttm>              <dttm>   
 1   10000032 22595853 2180-05-06 22:23:00 2180-05-07 17:15:00 NA       
 2   10000032 22841357 2180-06-26 18:27:00 2180-06-27 18:49:00 NA       
 3   10000032 25742920 2180-08-05 23:44:00 2180-08-07 17:50:00 NA       
 4   10000032 29079034 2180-07-23 12:35:00 2180-07-25 17:55:00 NA       
 5   10000068 25022803 2160-03-03 23:16:00 2160-03-04 06:26:00 NA       
 6   10000084 23052089 2160-11-21 01:56:00 2160-11-25 14:52:00 NA       
 7   10000084 29888819 2160-12-28 05:11:00 2160-12-28 16:07:00 NA       
 8   10000108 27250926 2163-09-27 23:17:00 2163-09-28 09:04:00 NA       
 9   10000117 22927623 2181-11-15 02:05:00 2181-11-15 14:52:00 NA       
10   10000117 27988844 2183-09-18 18:10:00 2183-09-21 16:30:00 NA       
   admission_type    admit_provider_id admission_location     discharge_location
   <chr>             <chr>             <chr>                  <chr>             
 1 URGENT            P874LG            TRANSFER FROM HOSPITAL HOME              
 2 EW EMER.          P09Q6Y            EMERGENCY ROOM         HOME              
 3 EW EMER.          P60CC5            EMERGENCY ROOM         HOSPICE           
 4 EW EMER.          P30KEH            EMERGENCY ROOM         HOME              
 5 EU OBSERVATION    P51VDL            EMERGENCY ROOM         <NA>              
 6 EW EMER.          P6957U            WALK-IN/SELF REFERRAL  HOME HEALTH CARE  
 7 EU OBSERVATION    P63AD6            PHYSICIAN REFERRAL     <NA>              
 8 EU OBSERVATION    P38XXV            EMERGENCY ROOM         <NA>              
 9 EU OBSERVATION    P2358X            EMERGENCY ROOM         <NA>              
10 OBSERVATION ADMIT P75S70            WALK-IN/SELF REFERRAL  HOME HEALTH CARE  
   insurance language marital_status race  edregtime          
   <chr>     <chr>    <chr>          <chr> <dttm>             
 1 Other     ENGLISH  WIDOWED        WHITE 2180-05-06 19:17:00
 2 Medicaid  ENGLISH  WIDOWED        WHITE 2180-06-26 15:54:00
 3 Medicaid  ENGLISH  WIDOWED        WHITE 2180-08-05 20:58:00
 4 Medicaid  ENGLISH  WIDOWED        WHITE 2180-07-23 05:54:00
 5 Other     ENGLISH  SINGLE         WHITE 2160-03-03 21:55:00
 6 Medicare  ENGLISH  MARRIED        WHITE 2160-11-20 20:36:00
 7 Medicare  ENGLISH  MARRIED        WHITE 2160-12-27 18:32:00
 8 Other     ENGLISH  SINGLE         WHITE 2163-09-27 16:18:00
 9 Other     ENGLISH  DIVORCED       WHITE 2181-11-14 21:51:00
10 Other     ENGLISH  DIVORCED       WHITE 2183-09-18 08:41:00
   edouttime           hospital_expire_flag
   <dttm>                             <dbl>
 1 2180-05-06 23:30:00                    0
 2 2180-06-26 21:31:00                    0
 3 2180-08-06 01:44:00                    0
 4 2180-07-23 14:00:00                    0
 5 2160-03-04 06:26:00                    0
 6 2160-11-21 03:20:00                    0
 7 2160-12-28 16:07:00                    0
 8 2163-09-28 09:04:00                    0
 9 2181-11-15 09:57:00                    0
10 2183-09-18 20:20:00                    0
# ℹ 431,221 more rows
…
length of hospital stay (from admission to discharge) (anything unusual?)

According to the MIMIC-IV documentation,

All dates in the database have been shifted to protect patient confidentiality. Dates will be internally consistent for the same patient, but randomly distributed in the future. Dates of birth which occur in the present time are not true dates of birth. Furthermore, dates of birth which occur before the year 1900 occur if the patient is older than 89. In these cases, the patient’s age at their first admission has been fixed to 300.

Answer

num_of_admission <- admissions_tble %>%
  group_by(subject_id) %>%
  summarise(number_of_admission = n_distinct(hadm_id))
num_of_admission

# A tibble: 180,733 × 2
   subject_id number_of_admission
        <dbl>               <int>
 1   10000032                   4
 2   10000068                   1
 3   10000084                   2
 4   10000108                   1
 5   10000117                   2
 6   10000248                   1
 7   10000280                   1
 8   10000560                   1
 9   10000635                   1
10   10000719                   1
# ℹ 180,723 more rows
…
